Flow report for game_control
Wed Jun 25 16:11:24 2014
Quartus II Version 9.1 Build 350 03/24/2010 Service Pack 2 SJ Web Edition


---------------------
; Table of Contents ;
---------------------
  1. Legal Notice
  2. Flow Summary
  3. Flow Settings
  4. Flow Non-Default Global Settings
  5. Flow Elapsed Time
  6. Flow OS Summary
  7. Flow Log



----------------
; Legal Notice ;
----------------
Copyright (C) 1991-2010 Altera Corporation
Your use of Altera Corporation's design tools, logic functions 
and other software and tools, and its AMPP partner logic 
functions, and any output files from any of the foregoing 
(including device programming or simulation files), and any 
associated documentation or information are expressly subject 
to the terms and conditions of the Altera Program License 
Subscription Agreement, Altera MegaCore Function License 
Agreement, or other applicable license agreement, including, 
without limitation, that your use is for the sole purpose of 
programming logic devices manufactured by Altera and sold by 
Altera or its authorized distributors.  Please refer to the 
applicable agreement for further details.



+-----------------------------------------------------------------------------------+
; Flow Summary                                                                      ;
+------------------------------------+----------------------------------------------+
; Flow Status                        ; Successful - Wed Jun 25 16:11:24 2014        ;
; Quartus II Version                 ; 9.1 Build 350 03/24/2010 SP 2 SJ Web Edition ;
; Revision Name                      ; game_control                                 ;
; Top-level Entity Name              ; game_control                                 ;
; Family                             ; Cyclone II                                   ;
; Device                             ; EP2C20F484C7                                 ;
; Timing Models                      ; Final                                        ;
; Met timing requirements            ; No                                           ;
; Total logic elements               ; 1,568 / 18,752 ( 8 % )                       ;
;     Total combinational functions  ; 1,538 / 18,752 ( 8 % )                       ;
;     Dedicated logic registers      ; 484 / 18,752 ( 3 % )                         ;
; Total registers                    ; 484                                          ;
; Total pins                         ; 81 / 315 ( 26 % )                            ;
; Total virtual pins                 ; 0                                            ;
; Total memory bits                  ; 57,600 / 239,616 ( 24 % )                    ;
; Embedded Multiplier 9-bit elements ; 2 / 52 ( 4 % )                               ;
; Total PLLs                         ; 1 / 4 ( 25 % )                               ;
+------------------------------------+----------------------------------------------+


+-----------------------------------------+
; Flow Settings                           ;
+-------------------+---------------------+
; Option            ; Setting             ;
+-------------------+---------------------+
; Start date & time ; 06/25/2014 16:11:03 ;
; Main task         ; Compilation         ;
; Revision Name     ; game_control        ;
+-------------------+---------------------+


+---------------------------------------------------------------------------------------------------------------------------------------------------------------------------------+
; Flow Non-Default Global Settings                                                                                                                                                ;
+------------------------------------+---------------------------------------------------------------------------------------------+---------------+-------------+----------------+
; Assignment Name                    ; Value                                                                                       ; Default Value ; Entity Name ; Section Id     ;
+------------------------------------+---------------------------------------------------------------------------------------------+---------------+-------------+----------------+
; COMPILER_SIGNATURE_ID              ; 33555989411457.140372346304160                                                              ; --            ; --          ; --             ;
; MAX_CORE_JUNCTION_TEMP             ; 85                                                                                          ; --            ; --          ; --             ;
; MIN_CORE_JUNCTION_TEMP             ; 0                                                                                           ; --            ; --          ; --             ;
; MISC_FILE                          ; C:/Users/Diego/Desktop/mc613/projeto/tic-tac-toe-fpga/game_control/game_control.dpf         ; --            ; --          ; --             ;
; MISC_FILE                          ; C:/Documents and Settings/ra135491/Desktop/tic-tac-toe-fpga_2/game_control/game_control.dpf ; --            ; --          ; --             ;
; MISC_FILE                          ; C:/Users/Diego/Desktop/tic-tac-toe-fpga_2/game_control/game_control.dpf                     ; --            ; --          ; --             ;
; PARTITION_COLOR                    ; 16764057                                                                                    ; --            ; --          ; Top            ;
; PARTITION_NETLIST_TYPE             ; SOURCE                                                                                      ; --            ; --          ; Top            ;
; SEARCH_PATH                        ; c:\users\diego\desktop\final\tic-tac-toe\pacotes                                            ; --            ; --          ; --             ;
; USE_GENERATED_PHYSICAL_CONSTRAINTS ; Off                                                                                         ; --            ; --          ; eda_blast_fpga ;
+------------------------------------+---------------------------------------------------------------------------------------------+---------------+-------------+----------------+


+-----------------------------------------------------------------------------------------------------------------------------+
; Flow Elapsed Time                                                                                                           ;
+-------------------------+--------------+-------------------------+---------------------+------------------------------------+
; Module Name             ; Elapsed Time ; Average Processors Used ; Peak Virtual Memory ; Total CPU Time (on all processors) ;
+-------------------------+--------------+-------------------------+---------------------+------------------------------------+
; Analysis & Synthesis    ; 00:00:10     ; 1.0                     ; 261 MB              ; 00:00:10                           ;
; Fitter                  ; 00:00:06     ; 1.0                     ; 242 MB              ; 00:00:06                           ;
; Assembler               ; 00:00:02     ; 1.0                     ; 225 MB              ; 00:00:01                           ;
; Classic Timing Analyzer ; 00:00:01     ; 1.0                     ; 168 MB              ; 00:00:01                           ;
; Total                   ; 00:00:19     ; --                      ; --                  ; 00:00:18                           ;
+-------------------------+--------------+-------------------------+---------------------+------------------------------------+


+------------------------------------------------------------------------------------------+
; Flow OS Summary                                                                          ;
+-------------------------+------------------+---------------+------------+----------------+
; Module Name             ; Machine Hostname ; OS Name       ; OS Version ; Processor type ;
+-------------------------+------------------+---------------+------------+----------------+
; Analysis & Synthesis    ; nix              ; Windows Vista ; 6.2        ; x86_64         ;
; Fitter                  ; nix              ; Windows Vista ; 6.2        ; x86_64         ;
; Assembler               ; nix              ; Windows Vista ; 6.2        ; x86_64         ;
; Classic Timing Analyzer ; nix              ; Windows Vista ; 6.2        ; x86_64         ;
+-------------------------+------------------+---------------+------------+----------------+


------------
; Flow Log ;
------------
quartus_map --read_settings_files=on --write_settings_files=off game_control -c game_control
quartus_fit --read_settings_files=off --write_settings_files=off game_control -c game_control
quartus_asm --read_settings_files=off --write_settings_files=off game_control -c game_control
quartus_tan --read_settings_files=off --write_settings_files=off game_control -c game_control --timing_analysis_only



