Flow report for game_engine
Fri Jun 20 20:49:19 2014
Quartus II Version 9.1 Build 350 03/24/2010 Service Pack 2 SJ Web Edition


---------------------
; Table of Contents ;
---------------------
  1. Legal Notice
  2. Flow Summary
  3. Flow Settings
  4. Flow Non-Default Global Settings
  5. Flow Elapsed Time
  6. Flow OS Summary
  7. Flow Log



----------------
; Legal Notice ;
----------------
Copyright (C) 1991-2010 Altera Corporation
Your use of Altera Corporation's design tools, logic functions 
and other software and tools, and its AMPP partner logic 
functions, and any output files from any of the foregoing 
(including device programming or simulation files), and any 
associated documentation or information are expressly subject 
to the terms and conditions of the Altera Program License 
Subscription Agreement, Altera MegaCore Function License 
Agreement, or other applicable license agreement, including, 
without limitation, that your use is for the sole purpose of 
programming logic devices manufactured by Altera and sold by 
Altera or its authorized distributors.  Please refer to the 
applicable agreement for further details.



+-----------------------------------------------------------------------------------+
; Flow Summary                                                                      ;
+------------------------------------+----------------------------------------------+
; Flow Status                        ; Successful - Fri Jun 20 20:49:19 2014        ;
; Quartus II Version                 ; 9.1 Build 350 03/24/2010 SP 2 SJ Web Edition ;
; Revision Name                      ; game_engine                                  ;
; Top-level Entity Name              ; game_engine                                  ;
; Family                             ; Cyclone II                                   ;
; Device                             ; EP2C20F484C7                                 ;
; Timing Models                      ; Final                                        ;
; Met timing requirements            ; Yes                                          ;
; Total logic elements               ; 26 / 18,752 ( < 1 % )                        ;
;     Total combinational functions  ; 25 / 18,752 ( < 1 % )                        ;
;     Dedicated logic registers      ; 8 / 18,752 ( < 1 % )                         ;
; Total registers                    ; 8                                            ;
; Total pins                         ; 45 / 315 ( 14 % )                            ;
; Total virtual pins                 ; 0                                            ;
; Total memory bits                  ; 0 / 239,616 ( 0 % )                          ;
; Embedded Multiplier 9-bit elements ; 0 / 52 ( 0 % )                               ;
; Total PLLs                         ; 0 / 4 ( 0 % )                                ;
+------------------------------------+----------------------------------------------+


+-----------------------------------------+
; Flow Settings                           ;
+-------------------+---------------------+
; Option            ; Setting             ;
+-------------------+---------------------+
; Start date & time ; 06/20/2014 20:49:02 ;
; Main task         ; Compilation         ;
; Revision Name     ; game_engine         ;
+-------------------+---------------------+


+---------------------------------------------------------------------------------------------------------------------------------------------------+
; Flow Non-Default Global Settings                                                                                                                  ;
+------------------------------------+---------------------------------------------------------------+---------------+-------------+----------------+
; Assignment Name                    ; Value                                                         ; Default Value ; Entity Name ; Section Id     ;
+------------------------------------+---------------------------------------------------------------+---------------+-------------+----------------+
; COMPILER_SIGNATURE_ID              ; 136482124091.140330814104260                                  ; --            ; --          ; --             ;
; EDA_OUTPUT_DATA_FORMAT             ; Verilog Hdl                                                   ; --            ; --          ; eda_simulation ;
; EDA_SIMULATION_TOOL                ; ModelSim-Altera (Verilog)                                     ; <None>        ; --          ; --             ;
; EDA_TIME_SCALE                     ; 1 ps                                                          ; --            ; --          ; eda_simulation ;
; MAX_CORE_JUNCTION_TEMP             ; 85                                                            ; --            ; --          ; --             ;
; MIN_CORE_JUNCTION_TEMP             ; 0                                                             ; --            ; --          ; --             ;
; PARTITION_COLOR                    ; 16764057                                                      ; --            ; --          ; Top            ;
; PARTITION_NETLIST_TYPE             ; SOURCE                                                        ; --            ; --          ; Top            ;
; SEARCH_PATH                        ; c:\users\diego\desktop\mc613\projeto\tic-tac-toe-fpga\pacotes ; --            ; --          ; --             ;
; USE_GENERATED_PHYSICAL_CONSTRAINTS ; Off                                                           ; --            ; --          ; eda_blast_fpga ;
+------------------------------------+---------------------------------------------------------------+---------------+-------------+----------------+


+-----------------------------------------------------------------------------------------------------------------------------+
; Flow Elapsed Time                                                                                                           ;
+-------------------------+--------------+-------------------------+---------------------+------------------------------------+
; Module Name             ; Elapsed Time ; Average Processors Used ; Peak Virtual Memory ; Total CPU Time (on all processors) ;
+-------------------------+--------------+-------------------------+---------------------+------------------------------------+
; Analysis & Synthesis    ; 00:00:02     ; 1.0                     ; 212 MB              ; 00:00:02                           ;
; Fitter                  ; 00:00:05     ; 1.0                     ; 216 MB              ; 00:00:05                           ;
; Assembler               ; 00:00:02     ; 1.0                     ; 201 MB              ; 00:00:02                           ;
; Classic Timing Analyzer ; 00:00:00     ; 1.0                     ; 135 MB              ; 00:00:00                           ;
; EDA Netlist Writer      ; 00:00:01     ; 1.0                     ; 148 MB              ; 00:00:01                           ;
; Total                   ; 00:00:10     ; --                      ; --                  ; 00:00:10                           ;
+-------------------------+--------------+-------------------------+---------------------+------------------------------------+


+------------------------------------------------------------------------------------------+
; Flow OS Summary                                                                          ;
+-------------------------+------------------+---------------+------------+----------------+
; Module Name             ; Machine Hostname ; OS Name       ; OS Version ; Processor type ;
+-------------------------+------------------+---------------+------------+----------------+
; Analysis & Synthesis    ; Alpha            ; Windows Vista ; 6.1        ; i686           ;
; Fitter                  ; Alpha            ; Windows Vista ; 6.1        ; i686           ;
; Assembler               ; Alpha            ; Windows Vista ; 6.1        ; i686           ;
; Classic Timing Analyzer ; Alpha            ; Windows Vista ; 6.1        ; i686           ;
; EDA Netlist Writer      ; Alpha            ; Windows Vista ; 6.1        ; i686           ;
+-------------------------+------------------+---------------+------------+----------------+


------------
; Flow Log ;
------------
quartus_map --read_settings_files=on --write_settings_files=off game_engine -c game_engine
quartus_fit --read_settings_files=off --write_settings_files=off game_engine -c game_engine
quartus_asm --read_settings_files=off --write_settings_files=off game_engine -c game_engine
quartus_tan --read_settings_files=off --write_settings_files=off game_engine -c game_engine --timing_analysis_only
quartus_eda --read_settings_files=off --write_settings_files=off game_engine -c game_engine



