Classic Timing Analyzer report for mode_decoder
Thu Jun 19 13:42:57 2014
Quartus II Version 9.1 Build 350 03/24/2010 Service Pack 2 SJ Web Edition


---------------------
; Table of Contents ;
---------------------
  1. Legal Notice
  2. Timing Analyzer Summary
  3. Timing Analyzer Settings
  4. Clock Settings Summary
  5. Parallel Compilation
  6. tsu
  7. tco
  8. th
  9. Timing Analyzer Messages



----------------
; Legal Notice ;
----------------
Copyright (C) 1991-2010 Altera Corporation
Your use of Altera Corporation's design tools, logic functions 
and other software and tools, and its AMPP partner logic 
functions, and any output files from any of the foregoing 
(including device programming or simulation files), and any 
associated documentation or information are expressly subject 
to the terms and conditions of the Altera Program License 
Subscription Agreement, Altera MegaCore Function License 
Agreement, or other applicable license agreement, including, 
without limitation, that your use is for the sole purpose of 
programming logic devices manufactured by Altera and sold by 
Altera or its authorized distributors.  Please refer to the 
applicable agreement for further details.



+------------------------------------------------------------------------------------------------------------------------------------------------+
; Timing Analyzer Summary                                                                                                                        ;
+------------------------------+-------+---------------+-------------+----------------+-------------------+------------+----------+--------------+
; Type                         ; Slack ; Required Time ; Actual Time ; From           ; To                ; From Clock ; To Clock ; Failed Paths ;
+------------------------------+-------+---------------+-------------+----------------+-------------------+------------+----------+--------------+
; Worst-case tsu               ; N/A   ; None          ; -0.707 ns   ; en_decoder     ; first_player~reg0 ; --         ; clk_game ; 0            ;
; Worst-case tco               ; N/A   ; None          ; 7.296 ns    ; game_mode~reg0 ; game_mode         ; clk_game   ; --       ; 0            ;
; Worst-case th                ; N/A   ; None          ; 1.409 ns    ; sw_mode        ; game_mode~reg0    ; --         ; clk_game ; 0            ;
; Total number of failed paths ;       ;               ;             ;                ;                   ;            ;          ; 0            ;
+------------------------------+-------+---------------+-------------+----------------+-------------------+------------+----------+--------------+


+-----------------------------------------------------------------------------------------------------------------------------------------------------+
; Timing Analyzer Settings                                                                                                                            ;
+------------------------------------------------------------------------------------------------------+--------------------+------+----+-------------+
; Option                                                                                               ; Setting            ; From ; To ; Entity Name ;
+------------------------------------------------------------------------------------------------------+--------------------+------+----+-------------+
; Device Name                                                                                          ; EP2C20F484C7       ;      ;    ;             ;
; Timing Models                                                                                        ; Final              ;      ;    ;             ;
; Default hold multicycle                                                                              ; Same as Multicycle ;      ;    ;             ;
; Cut paths between unrelated clock domains                                                            ; On                 ;      ;    ;             ;
; Cut off read during write signal paths                                                               ; On                 ;      ;    ;             ;
; Cut off feedback from I/O pins                                                                       ; On                 ;      ;    ;             ;
; Report Combined Fast/Slow Timing                                                                     ; Off                ;      ;    ;             ;
; Ignore Clock Settings                                                                                ; Off                ;      ;    ;             ;
; Analyze latches as synchronous elements                                                              ; On                 ;      ;    ;             ;
; Enable Recovery/Removal analysis                                                                     ; Off                ;      ;    ;             ;
; Enable Clock Latency                                                                                 ; Off                ;      ;    ;             ;
; Use TimeQuest Timing Analyzer                                                                        ; Off                ;      ;    ;             ;
; Minimum Core Junction Temperature                                                                    ; 0                  ;      ;    ;             ;
; Maximum Core Junction Temperature                                                                    ; 85                 ;      ;    ;             ;
; Number of source nodes to report per destination node                                                ; 10                 ;      ;    ;             ;
; Number of destination nodes to report                                                                ; 10                 ;      ;    ;             ;
; Number of paths to report                                                                            ; 200                ;      ;    ;             ;
; Report Minimum Timing Checks                                                                         ; Off                ;      ;    ;             ;
; Use Fast Timing Models                                                                               ; Off                ;      ;    ;             ;
; Report IO Paths Separately                                                                           ; Off                ;      ;    ;             ;
; Perform Multicorner Analysis                                                                         ; On                 ;      ;    ;             ;
; Reports the worst-case path for each clock domain and analysis                                       ; Off                ;      ;    ;             ;
; Reports worst-case timing paths for each clock domain and analysis                                   ; On                 ;      ;    ;             ;
; Specifies the maximum number of worst-case timing paths to report for each clock domain and analysis ; 100                ;      ;    ;             ;
; Removes common clock path pessimism (CCPP) during slack computation                                  ; Off                ;      ;    ;             ;
; Output I/O Timing Endpoint                                                                           ; Near End           ;      ;    ;             ;
+------------------------------------------------------------------------------------------------------+--------------------+------+----+-------------+


+------------------------------------------------------------------------------------------------------------------------------------------------------------------------------------+
; Clock Settings Summary                                                                                                                                                             ;
+-----------------+--------------------+----------+------------------+---------------+--------------+----------+-----------------------+---------------------+--------+--------------+
; Clock Node Name ; Clock Setting Name ; Type     ; Fmax Requirement ; Early Latency ; Late Latency ; Based on ; Multiply Base Fmax by ; Divide Base Fmax by ; Offset ; Phase offset ;
+-----------------+--------------------+----------+------------------+---------------+--------------+----------+-----------------------+---------------------+--------+--------------+
; clk_game        ;                    ; User Pin ; None             ; 0.000 ns      ; 0.000 ns     ; --       ; N/A                   ; N/A                 ; N/A    ;              ;
+-----------------+--------------------+----------+------------------+---------------+--------------+----------+-----------------------+---------------------+--------+--------------+


Parallel compilation was disabled, but you have multiple processors available. Enable parallel compilation to reduce compilation time.
+-------------------------------------+
; Parallel Compilation                ;
+----------------------------+--------+
; Processors                 ; Number ;
+----------------------------+--------+
; Number detected on machine ; 2      ;
; Maximum allowed            ; 1      ;
+----------------------------+--------+


+-------------------------------------------------------------------------------+
; tsu                                                                           ;
+-------+--------------+------------+------------+-------------------+----------+
; Slack ; Required tsu ; Actual tsu ; From       ; To                ; To Clock ;
+-------+--------------+------------+------------+-------------------+----------+
; N/A   ; None         ; -0.707 ns  ; en_decoder ; game_mode~reg0    ; clk_game ;
; N/A   ; None         ; -0.707 ns  ; en_decoder ; first_player~reg0 ; clk_game ;
; N/A   ; None         ; -1.155 ns  ; sw_player  ; first_player~reg0 ; clk_game ;
; N/A   ; None         ; -1.161 ns  ; sw_mode    ; game_mode~reg0    ; clk_game ;
+-------+--------------+------------+------------+-------------------+----------+


+-----------------------------------------------------------------------------------+
; tco                                                                               ;
+-------+--------------+------------+-------------------+--------------+------------+
; Slack ; Required tco ; Actual tco ; From              ; To           ; From Clock ;
+-------+--------------+------------+-------------------+--------------+------------+
; N/A   ; None         ; 7.296 ns   ; game_mode~reg0    ; game_mode    ; clk_game   ;
; N/A   ; None         ; 7.266 ns   ; first_player~reg0 ; first_player ; clk_game   ;
+-------+--------------+------------+-------------------+--------------+------------+


+-------------------------------------------------------------------------------------+
; th                                                                                  ;
+---------------+-------------+-----------+------------+-------------------+----------+
; Minimum Slack ; Required th ; Actual th ; From       ; To                ; To Clock ;
+---------------+-------------+-----------+------------+-------------------+----------+
; N/A           ; None        ; 1.409 ns  ; sw_mode    ; game_mode~reg0    ; clk_game ;
; N/A           ; None        ; 1.403 ns  ; sw_player  ; first_player~reg0 ; clk_game ;
; N/A           ; None        ; 0.955 ns  ; en_decoder ; game_mode~reg0    ; clk_game ;
; N/A           ; None        ; 0.955 ns  ; en_decoder ; first_player~reg0 ; clk_game ;
+---------------+-------------+-----------+------------+-------------------+----------+


+--------------------------+
; Timing Analyzer Messages ;
+--------------------------+
Info: *******************************************************************
Info: Running Quartus II Classic Timing Analyzer
    Info: Version 9.1 Build 350 03/24/2010 Service Pack 2 SJ Web Edition
    Info: Processing started: Thu Jun 19 13:42:57 2014
Info: Command: quartus_tan --read_settings_files=off --write_settings_files=off mode_decoder -c mode_decoder --timing_analysis_only
Warning: Found pins functioning as undefined clocks and/or memory enables
    Info: Assuming node "clk_game" is an undefined clock
Info: No valid register-to-register data paths exist for clock "clk_game"
Info: tsu for register "game_mode~reg0" (data pin = "en_decoder", clock pin = "clk_game") is -0.707 ns
    Info: + Longest pin to register delay is 2.187 ns
        Info: 1: + IC(0.000 ns) + CELL(1.026 ns) = 1.026 ns; Loc. = PIN_L22; Fanout = 2; PIN Node = 'en_decoder'
        Info: 2: + IC(0.403 ns) + CELL(0.758 ns) = 2.187 ns; Loc. = LCFF_X49_Y14_N17; Fanout = 1; REG Node = 'game_mode~reg0'
        Info: Total cell delay = 1.784 ns ( 81.57 % )
        Info: Total interconnect delay = 0.403 ns ( 18.43 % )
    Info: + Micro setup delay of destination is -0.038 ns
    Info: - Shortest clock path from clock "clk_game" to destination register is 2.856 ns
        Info: 1: + IC(0.000 ns) + CELL(1.026 ns) = 1.026 ns; Loc. = PIN_M21; Fanout = 1; CLK Node = 'clk_game'
        Info: 2: + IC(0.232 ns) + CELL(0.000 ns) = 1.258 ns; Loc. = CLKCTRL_G7; Fanout = 2; COMB Node = 'clk_game~clkctrl'
        Info: 3: + IC(0.996 ns) + CELL(0.602 ns) = 2.856 ns; Loc. = LCFF_X49_Y14_N17; Fanout = 1; REG Node = 'game_mode~reg0'
        Info: Total cell delay = 1.628 ns ( 57.00 % )
        Info: Total interconnect delay = 1.228 ns ( 43.00 % )
Info: tco from clock "clk_game" to destination pin "game_mode" through register "game_mode~reg0" is 7.296 ns
    Info: + Longest clock path from clock "clk_game" to source register is 2.856 ns
        Info: 1: + IC(0.000 ns) + CELL(1.026 ns) = 1.026 ns; Loc. = PIN_M21; Fanout = 1; CLK Node = 'clk_game'
        Info: 2: + IC(0.232 ns) + CELL(0.000 ns) = 1.258 ns; Loc. = CLKCTRL_G7; Fanout = 2; COMB Node = 'clk_game~clkctrl'
        Info: 3: + IC(0.996 ns) + CELL(0.602 ns) = 2.856 ns; Loc. = LCFF_X49_Y14_N17; Fanout = 1; REG Node = 'game_mode~reg0'
        Info: Total cell delay = 1.628 ns ( 57.00 % )
        Info: Total interconnect delay = 1.228 ns ( 43.00 % )
    Info: + Micro clock to output delay of source is 0.277 ns
    Info: + Longest register to pin delay is 4.163 ns
        Info: 1: + IC(0.000 ns) + CELL(0.000 ns) = 0.000 ns; Loc. = LCFF_X49_Y14_N17; Fanout = 1; REG Node = 'game_mode~reg0'
        Info: 2: + IC(1.313 ns) + CELL(2.850 ns) = 4.163 ns; Loc. = PIN_U22; Fanout = 0; PIN Node = 'game_mode'
        Info: Total cell delay = 2.850 ns ( 68.46 % )
        Info: Total interconnect delay = 1.313 ns ( 31.54 % )
Info: th for register "game_mode~reg0" (data pin = "sw_mode", clock pin = "clk_game") is 1.409 ns
    Info: + Longest clock path from clock "clk_game" to destination register is 2.856 ns
        Info: 1: + IC(0.000 ns) + CELL(1.026 ns) = 1.026 ns; Loc. = PIN_M21; Fanout = 1; CLK Node = 'clk_game'
        Info: 2: + IC(0.232 ns) + CELL(0.000 ns) = 1.258 ns; Loc. = CLKCTRL_G7; Fanout = 2; COMB Node = 'clk_game~clkctrl'
        Info: 3: + IC(0.996 ns) + CELL(0.602 ns) = 2.856 ns; Loc. = LCFF_X49_Y14_N17; Fanout = 1; REG Node = 'game_mode~reg0'
        Info: Total cell delay = 1.628 ns ( 57.00 % )
        Info: Total interconnect delay = 1.228 ns ( 43.00 % )
    Info: + Micro hold delay of destination is 0.286 ns
    Info: - Shortest pin to register delay is 1.733 ns
        Info: 1: + IC(0.000 ns) + CELL(1.026 ns) = 1.026 ns; Loc. = PIN_L21; Fanout = 1; PIN Node = 'sw_mode'
        Info: 2: + IC(0.433 ns) + CELL(0.178 ns) = 1.637 ns; Loc. = LCCOMB_X49_Y14_N16; Fanout = 1; COMB Node = 'game_mode~reg0feeder'
        Info: 3: + IC(0.000 ns) + CELL(0.096 ns) = 1.733 ns; Loc. = LCFF_X49_Y14_N17; Fanout = 1; REG Node = 'game_mode~reg0'
        Info: Total cell delay = 1.300 ns ( 75.01 % )
        Info: Total interconnect delay = 0.433 ns ( 24.99 % )
Info: Quartus II Classic Timing Analyzer was successful. 0 errors, 1 warning
    Info: Peak virtual memory: 149 megabytes
    Info: Processing ended: Thu Jun 19 13:42:57 2014
    Info: Elapsed time: 00:00:00
    Info: Total CPU time (on all processors): 00:00:00


